{
    "$schema": "https://schemas.wp.org/trunk/theme.json",
    "version": 2,
	"customTemplates": [
		{
			"name": "blank",
			"postTypes": [
				"page",
				"post"
			],
			"title": "Blank"
		},
		{
			"name": "blog-alternative",
			"postTypes": [
				"page"
			],
			"title": "Blog (Alternative)"
		},
		{
			"name": "404",
			"postTypes": [
				"page"
			],
			"title": "404"
		}
	],
    "settings":{ 
        "appearanceTools": true,
		"border": {
			"color": false,
			"radius": false,
			"style": false,
			"width": false
		},
        "color": {
			"text": true,
			"background": true,
			"link": true,
			"custom": false,
			"customDuotone": false,
			"customGradient": false,
			"defaultDuotone": false,
			"defaultGradients": false,
			"defaultPalette": false,
            "palette": [
                {
                    "color": "#FFFFFF",
                    "name": "Base",
                    "slug": "base"
                },
                {
                    "color": "#000000",
                    "name": "Contrast",
                    "slug": "contrast"
                },
                {
                    "color": "#9DFF20",
                    "name": "Primary",
                    "slug": "primary"
                },
                {
                    "color": "#345C00",
                    "name": "Secondary",
                    "slug": "secondary"
                },
                {
                    "color": "#F6F6F6",
                    "name": "Tertiary",
                    "slug": "tertiary"
                }
            ]
        },
        "layout": {
            "contentSize": "800px",
            "wideSize": "1300px"
        },
        "spacing": {
            "blockGap": null,
			"margin": false,
			"padding": false,
			"units": []
        },
        "typography": {
			"customFontSize": false,
			"fontStyle": true,
			"fontWeight": false,
			"letterSpacing": false,
			"lineHeight": false,
			"textDecoration": false,
			"textTransform": false,
			"dropCap": true,
            "fontFamilies": [
                {
                    "fontFace": [
                        {
                            "fontFamily": "Jost",
                            "fontStretch": "normal",
                            "fontStyle": "normal",
                            "fontWeight": "400",
                            "src": [
                                "file:./assets/fonts/jost/jost-regular.woff2"
                            ]
                        },
                        {
                            "fontFamily": "Jost",
                            "fontStretch": "normal",
                            "fontStyle": "normal",
                            "fontWeight": "200",
                            "src": [
                                "file:./assets/fonts/jost/jost-200.woff2"
                            ]
                        },
                        {
                            "fontFamily": "Jost",
                            "fontStretch": "normal",
                            "fontStyle": "normal",
                            "fontWeight": "800",
                            "src": [
                                "file:./assets/fonts/jost/jost-800.woff2"
                            ]
                        },
                        {
                            "fontFamily": "Jost",
                            "fontStretch": "normal",
                            "fontStyle": "italic",
                            "fontWeight": "400",
                            "src": [
                                "file:./assets/fonts/jost/jost-italic.woff2"
                            ]
                        },
                        {
                            "fontFamily": "Jost",
                            "fontStretch": "normal",
                            "fontStyle": "italic",
                            "fontWeight": "200",
                            "src": [
                                "file:./assets/fonts/jost/jost-200italic.woff2"
                            ]
                        },
                        {
                            "fontFamily": "Jost",
                            "fontStretch": "normal",
                            "fontStyle": "italic",
                            "fontWeight": "800",
                            "src": [
                                "file:./assets/fonts/jost/jost-800italic.woff2"
                            ]
                        }
                    ],
                    "fontFamily": "\"Jost\", sans-serif",
                    "name": "Jost",
                    "slug": "jost"
                }
            ],
            "fontSizes": [
                {
                    "slug": "small",
                    "size": "1rem",
                    "name": "Small"
                },
                {
                    "slug": "medium",
                    "size": "1.5rem",
                    "name": "Medium"
                },
                {
                    "slug": "large",
                    "size": "2rem",
                    "name": "Large"
                },
                {
                    "slug": "x-large",
                    "size": "2.5rem",
                    "name": "X-Large"
                },
                {
                    "slug": "xx-large",
                    "size": "3rem",
                    "name": "XX-Large"
                }
            ]
        }
    },
    "styles": {
        "blocks": {
			"core/navigation": {
				"elements": {
					"link": {
						":hover": {
							"typography": {
								"textDecoration": "underline"
							}
						},
						":focus": {
							"typography": {
								"textDecoration": "underline dashed"
							}
						},
						":active": {
							"typography": {
								"textDecoration": "none"
							}
						},
						"typography": {
							"textDecoration": "none"
						}
					}
				},
				"typography": {
					"fontSize": "var(--wp--preset--font-size--small)"
				}
			},
			"core/post-author": {
				"typography": {
					"fontSize": "var(--wp--preset--font-size--small)"
				}
			},
			"core/post-content": {
				"elements": {
					"link": {
						"color": {
							"text": "var(--wp--preset--color--secondary)"
						}
					}
				}
			},
			"core/post-excerpt": {
				"typography": {
					"fontSize": "var(--wp--preset--font-size--medium)"
				}
			},
			"core/post-date": {
				"typography": {
					"fontSize": "var(--wp--preset--font-size--small)",
					"fontWeight": "400"
				},
				"elements": {
					"link": {
						"typography": {
							"textDecoration": "none"
						},
						":hover": {
							"typography": {
								"textDecoration": "underline"
							}
						}
					}
				}
			},
			"core/post-terms": {
				"typography": {
					"fontSize": "var(--wp--preset--font-size--small)"
				}
			},
			"core/post-title": {
				"spacing": {
					"margin": {
						"bottom": "var(--wp--preset--spacing--30)",
						"top": "var(--wp--preset--spacing--30)"
					}
				},
				"typography": {
					"fontWeight": "400"
				},
				"elements": {
					"link": {
						":hover": {
							"typography": {
								"textDecoration": "underline"
							}
						},
						":focus": {
							"typography": {
								"textDecoration": "underline dashed"
							}
						},
						":active": {
							"color": {
								"text": "var(--wp--preset--color--secondary)"
							},
							"typography": {
								"textDecoration": "none"
							}
						},
						"typography": {
							"textDecoration": "none"
						}
					}
				}
			},
			"core/comments-title":{
				"typography": {
					"fontSize": "var(--wp--preset--font-size--large)"
				},
				"spacing": {
					"margin": {
						"bottom": "var(--wp--preset--spacing--40)"
					}
				}
			},
			"core/comment-author-name": {
				"elements": {
					"link": {
						":hover": {
							"typography": {
								"textDecoration": "underline"
							}
						},
						":focus": {
							"typography": {
								"textDecoration": "underline dashed"
							}
						},
						":active": {
							"color": {
								"text": "var(--wp--preset--color--secondary)"
							},
							"typography": {
								"textDecoration": "none"
							}
						},
						"typography": {
							"textDecoration": "none"
						}
					}
				}
			},
			"core/comment-date": {
				"typography": {
					"fontSize": "var(--wp--preset--font-size--small)"
				},
				"elements": {
					"link": {
						":hover": {
							"typography": {
								"textDecoration": "underline"
							}
						},
						":focus": {
							"typography": {
								"textDecoration": "underline dashed"
							}
						},
						":active": {
							"color": {
								"text": "var(--wp--preset--color--secondary)"
							},
							"typography": {
								"textDecoration": "none"
							}
						},
						"typography": {
							"textDecoration": "none"
						}
					}
				}
			},
			"core/comment-edit-link": {
				"typography": {
					"fontSize": "var(--wp--preset--font-size--small)"
				}
			},
			"core/comment-reply-link": {
				"typography": {
					"fontSize": "var(--wp--preset--font-size--small)"
				}
			},
			"core/comments-pagination": {
				"spacing": {
					"margin": {
						"top": "var(--wp--preset--spacing--40)"
					}
				},
				"elements": {
					"link": {
						"typography": {
							"textDecoration": "none"
						}
					}
				}
			},
			"core/pullquote": {
				"border": {
					"width": "1px 0"
				}
			},
			"core/query-pagination": {
				"typography": {
					"fontSize": "var(--wp--preset--font-size--small)",
					"fontWeight": "400"
				},
				"elements": {
					"link": {
						"typography": {
							"textDecoration": "none"
						},
						":hover": {
							"typography": {
								"textDecoration": "underline"
							}
						}
					}
				}
			},
			"core/quote": {
				"border": {
					"width": "1px"
				}
			},
			"core/site-title": {
				"elements": {
					"link": {
						":hover": {
							"typography": {
								"textDecoration": "underline"
							}
						},
						":focus": {
							"typography": {
								"textDecoration": "underline dashed"
							}
						},
						":active": {
							"color": {
								"text": "var(--wp--preset--color--secondary)"
							},
							"typography": {
								"textDecoration": "none"
							}
						},
						"typography": {
							"textDecoration": "none"
						}
					}
				},
				"typography": {
					"fontSize": "var(--wp--preset--font-size--medium)",
					"fontWeight": "normal",
					"lineHeight": "1.4"
				}
			}
		},
        "color": {
            "background":"var(--wp--preset--color--base)",
            "text": "var(--wp--preset--color--contrast)"
        },
        "elements": {
            "button": {
                "border":{
                    "radius": "0px"
                },
                "color": {
                    "background": "var(--wp--preset--color--primary)",
                    "text": "var(--wp--preset--color--contrast)"
                },
                ":hover": {
                    "color": {
                        "background": "var(--wp--preset--color--contrast)",
                        "text": "var(--wp--preset--color--base)"
                    }
                },
                ":focus": {
                    "color": {
                        "background": "var(--wp--preset--color--contrast)",
                        "text": "var(--wp--preset--color--base)"
                    }
                },
                ":active": {
                    "color": {
                        "background": "var(--wp--preset--color--secondary)",
                        "text": "var(--wp--preset--color--base)"
                    }
                }
            },
            "h1": {
				"typography": {
					"fontSize": "58px",
					"lineHeight": "1.2"
				}
			},
			"h2": {
				"typography": {
					"fontSize": "var(--wp--preset--font-size--xx-large)",
					"lineHeight": "1.2"
				}
			},
			"h3": {
				"typography": {
					"fontSize": "var(--wp--preset--font-size--x-large)"
				}
			},
			"h4": {
				"typography": {
					"fontSize": "var(--wp--preset--font-size--large)"
				}
			},
			"h5": {
				"typography": {
					"fontSize": "var(--wp--preset--font-size--medium)",
					"fontWeight": "700",
					"textTransform": "uppercase"
				}
			},
			"h6": {
				"typography": {
					"fontSize": "var(--wp--preset--font-size--medium)",
					"textTransform": "uppercase"
				}
			},
            "heading": {
				"typography": {
					"fontWeight": "400",
					"lineHeight": "1.4"
				}
			},
            "link": {
				"color": {
					"text": "var(--wp--preset--color--contrast)"
				},
                "typography": {
					"textDecoration": "underline"
				},
				":hover": {
					"typography": {
						"textDecoration": "none"
					}
				},
				":focus": {
					"typography": {
						"textDecoration": "underline dashed"
					}
				},
				":active": {
					"color": {
						"text": "var(--wp--preset--color--secondary)"
					},
					"typography": {
						"textDecoration": "none"
					}
				}
			}
        },
        "spacing": {
            "blockGap": "0 rem"
        },
        "typography": {
			"fontFamily": "var(--wp--preset--font-family--jost)",
			"fontSize": "var(--wp--preset--font-size--medium)",
			"lineHeight": "1.6"
		}
    },
    "templateParts": [
		{
			"area": "header",
			"name": "header",
			"title": "Header"
		},
		{
			"area": "footer",
			"name": "footer",
			"title": "Footer"
		},
		{
			"area": "uncategorized",
			"name": "comments",
			"title": "Comments"
		},
		{
			"area": "uncategorized",
			"name": "post-meta",
			"title": "Post Meta"
		}
	]
}