{
    "$schema": "https://schemas.wp.org/trunk/block.json",
    "name": "acf/hero-global",
    "title": "Bloc d'entête général",
    "description": "",
    "style": "file:./style.css",
    "acf": {
        "mode": "preview",
        "renderTemplate": "hero.php"
    },
    "icon": "pressthis",
    "keywords": ["hero", "header", "image"],
    "supports": {
        "align": true,
        "mode": false,
        "jsx": true
    }    
}