{
    "$schema": "https://schemas.wp.org/trunk/block.json",
    "name": "acf/chiffre2",
    "title": "Quelques chiffre 2",
    "description": "",
    "style": "file:./style.css",
    "acf": {
        "mode": "auto",
        "renderTemplate": "chiffre.php"
    },
    "icon": "pressthis",
    "keywords": ["chiffre", "informations"],
    "supports": {
        "align": true,
        "mode": false,
        "jsx": true
    }
    
}