{
    "$schema": "https://schemas.wp.org/trunk/block.json",
    "name": "ihag/modal-image",
    "title": "Modale Zoom",
    "description": "",
    "style": "file:./style.css",
    "acf": {
        "mode": "auto",
        "renderTemplate": "modal-image.php"
    },
    "icon": "pressthis",
    "keywords": ["image"]
}